Appliances,Quantity,"Connection Type",Voltage,Amps,"Max Power (W)","Average Use Time (h)","Energy Use (Wh)",Notes,Links,
"Lenovo Yoga 720 Laptop",1,USB-C,230,,45,6,270,,https://www.youtube.com/watch?v=MpFekHfJMFo,
"Kindle eReader",1,USB,12,0.25,3,0.5,1.5,,,
"Mobile Phone",2,USB,12,0.6666666666666666,8,4,64,,,
"Compressor Fridge",1,Wired,12,6.25,75,6,450,"The fridge doesn’t run all the time, it turns on / off via the thermostat, the compressor only runs for part of the day not all day ",,
"Sink Submersible Pump",1,Wired,12,,0,0.5,0,,,
"Cell Booster",1,"SMA Female",12,,0,8,0,,,
Tablet,2,USB,12,,0,2,0,,,
"Shower Submersible Pump",1,Wired,12,,0,0.3,0,,,
"Truma Combi Boiler",1,Wired,12,1.1,13.200000000000001,6,79.2,"Not sure what the actual power costs are here, as its a gas boiler, but appears it wants a connection, for spark perhaps, but what else?",,
"Roof Fan",1,Wired,12,4,48,3,144,,,
"Shower Room Extractor Fan",1,Wired,12,,0,0.3,0,,,
Lights,8,Wired,12,,0,6,0,,,
"Toilet Fan",1,Wired,12,,0,0,0,,,
Cooker,1,Wired,12,0,0,0,0,"Just a spark",,
,,,,"Hours per day",42.599999999999994,"Total Power Consumption (Wh)",1008.7,,,
,,,,,,,,,,
"Input (W)",Quantity,"System Loss",Voltage,Amps,"Max Power (W)","Average Charge Time (h)","Maximum Output (Wh)",,,
150,3,0.3,20.2,7.43,450,3.3,1485,,,
"(solar panels)",,,,,,,"Actual Output (Wh) (30% loss)",,,
,,,,,,,1039.5,,,
,,,,,"Depth of Battery Discharge","Days Required","Supply over 2 Days (Wh)",,,
,,,,,0.5,2,4158,,,
Formulas,,,,,"Battery System (V)","Battery Temperature Multiplier (~10 C)","Battery Bank Capacity (Ah)",,,
"Voltage = Current (A) x Resistance",,,,,12,1.11,384.615,,,
"Power (W) = Voltage (V) x Current (A)",,,,,,"Number of Batteries","Battery Capacity (Ah)",,,
"Consumption (Wh) = Power (W) x Time (h)",,,,,,3,128.205,,,
,,,,,,,,,,
Articles,,,,,,,,,,
https://sciencing.com/cable-length-vs-power-drop-12184174.html,,,,,,,,,,
https://www.amazon.co.uk/Ultra-MP1584EN-Converter-Adjustable-Module/dp/B07SJFTD7F/ref=sr_1_3?keywords=DC+to+DC+converter&qid=1584370314&s=diy&sr=1-3,,,,,,,,,,
https://www.portablepowertech.com/batteries/exide-deep-cycle-batteries/exide-agm/,,,,,,,,,,
"USB-C supports up to 100W power supply",,,,,,,,,,
,,,,,,,,,,
Removed,,,,,,,,,,
"Olimex Lime2",1,DC,5,1.2,6,24,144,"needs a custom adapter",,
,,AC,"230 down to 5",,,,,,,
